{
	"name": "tbcdigital/cc-laravel",
	"description": "TBCDigital Common Core Laravel Framework.",
	"keywords": ["framework", "laravel", "common core", "CC", "tbcdigital"],
	"license": "MIT",
	"repositories": [
        {
            "type": "composer",
            "url": "http://satis.tbc-digital.com"
        }
    ],
	"require": {
		"laravel/framework": "4.2.*",
		"jenssegers/mongodb": "*",
		"tbcdigital/tbcauth":"dev-master"
	},
	"require-dev": {
		"fzaninotto/faker": "1.5.*@dev"
	},
	"autoload": {
		"classmap": [
			"app/commands",
			"app/controllers",
			"app/models",
			"app/database/migrations",
			"app/database/seeds"
		]
	},
	"scripts": {
		"post-install-cmd": [
			"php artisan clear-compiled",
			"php artisan optimize"
		],
		"post-update-cmd": [
			"php artisan clear-compiled",
			"php artisan optimize"
		],
		"post-create-project-cmd": [
			"php artisan key:generate"
		]
	},
	"config": {
		"preferred-install": "dist"
	},
	"minimum-stability": "dev",
	"prefer-stable": true
}
